<?xml version="1.0" encoding="UTF-8" standalone="no"?>
<!-- Generator: Adobe Illustrator 17.1.0, SVG Export Plug-In . SVG Version: 6.00 Build 0)  -->

<svg
   xmlns:dc="http://purl.org/dc/elements/1.1/"
   xmlns:cc="http://creativecommons.org/ns#"
   xmlns:rdf="http://www.w3.org/1999/02/22-rdf-syntax-ns#"
   xmlns:svg="http://www.w3.org/2000/svg"
   xmlns="http://www.w3.org/2000/svg"
   xmlns:sodipodi="http://sodipodi.sourceforge.net/DTD/sodipodi-0.dtd"
   xmlns:inkscape="http://www.inkscape.org/namespaces/inkscape"
   version="1.1"
   id="Layer_1"
   x="0px"
   y="0px"
   width="1000px"
   height="1000px"
   viewBox="0 0 1000 1000"
   enable-background="new 0 0 1000 1000"
   xml:space="preserve"
   inkscape:version="0.48.4 r9939"
   sodipodi:docname="portrait.svg"><metadata
   id="metadata17"><rdf:RDF><cc:Work
       rdf:about=""><dc:format>image/svg+xml</dc:format><dc:type
         rdf:resource="http://purl.org/dc/dcmitype/StillImage" /><dc:title></dc:title></cc:Work></rdf:RDF></metadata><defs
   id="defs15" /><sodipodi:namedview
   pagecolor="#ffffff"
   bordercolor="#666666"
   borderopacity="1"
   objecttolerance="10"
   gridtolerance="10"
   guidetolerance="10"
   inkscape:pageopacity="0"
   inkscape:pageshadow="2"
   inkscape:window-width="1600"
   inkscape:window-height="848"
   id="namedview13"
   showgrid="false"
   inkscape:zoom="1.888"
   inkscape:cx="1207.4855"
   inkscape:cy="619.09947"
   inkscape:window-x="-8"
   inkscape:window-y="-8"
   inkscape:window-maximized="1"
   inkscape:current-layer="Layer_1" />




<g
   id="g3001"><path
     id="path3"
     d="M78.5,66.896c-11.046,0-20,8.954-20,20v294.205c0,11.046,8.954,20,20,20h35c11.046,0,20-8.954,20-20V161.896  c0-11.046,8.954-20,20-20h219.206c11.046,0,20-8.954,20-20v-35c0-11.046-8.954-20-20-20H78.5z" /><path
     id="path5"
     d="M941.5,259v-36.721V86.896c0-11.046-8.954-20-20-20H822h-18H627.295c-11.046,0-20,8.954-20,20v35c0,11.046,8.954,20,20,20  H804h18h24.5c11.046,0,20,8.954,20,20v60.383V259v122.103c0,11.046,8.954,20,20,20h35c11.046,0,20-8.954,20-20V259z" /><path
     id="path7"
     d="M78.5,949.896h294.205c11.046,0,20-8.954,20-20v-35c0-11.046-8.954-20-20-20H153.5c-11.046,0-20-8.954-20-20V635.69  c0-11.046-8.954-20-20-20h-35c-11.046,0-20,8.954-20,20v294.206C58.5,940.942,67.454,949.896,78.5,949.896z" /><path
     id="path9"
     d="M627.294,949.896H921.5c11.046,0,20-8.954,20-20V635.691c0-11.046-8.954-20-20-20h-35c-11.046,0-20,8.954-20,20v219.205  c0,11.046-8.954,20-20,20H627.294c-11.046,0-20,8.954-20,20v35C607.294,940.942,616.248,949.896,627.294,949.896z" /><path
     id="path11"
     d="M723.062,824.462c11.046,0,20-8.954,20-20v-62.954c0-34.557-10.621-68.606-29.988-97.199  c-21.743-32.102-52.152-48.205-85.088-65.866c-21.21-11.374-40.929-27.948-50.468-49.57  c60.982-29.014,103.139-91.189,103.139-163.217C680.656,265.882,599.773,185,500,185s-180.656,80.882-180.656,180.656  c0,72.028,42.157,134.203,103.139,163.217c-9.539,21.622-29.258,38.196-50.468,49.57c-32.937,17.661-63.346,33.764-85.088,65.866  c-19.367,28.593-29.988,62.643-29.988,97.199v62.954c0,11.046,8.954,20,20,20H500H723.062z" /></g>
<path
   sodipodi:type="arc"
   style="fill:#666666;fill-opacity:1;fill-rule:evenodd"
   id="path3014"
   sodipodi:cx="86.237289"
   sodipodi:cy="6.3050847"
   sodipodi:rx="22.983051"
   sodipodi:ry="22.983051"
   d="m 109.22034,6.3050847 a 22.983051,22.983051 0 1 1 -45.966102,0 22.983051,22.983051 0 1 1 45.966102,0 z"
   transform="matrix(3.2632743,0,0,3.2632743,1023.6688,322.64511)" /><g
   id="g3002"
   transform="translate(-1.6970563e-4,4.8880209)"
   style="fill:#007f9a;fill-opacity:1"
   inkscape:export-filename="D:\My WORK's\project\Januari\PicInsider\icon\photographer tips\portrait.png"
   inkscape:export-xdpi="90"
   inkscape:export-ydpi="90"><g
     transform="translate(2e-4,-4.888015)"
     id="g3026"
     style="fill:#007f9a;fill-opacity:1"><path
       inkscape:connector-curvature="0"
       id="path3010"
       d="m 1269.4089,305.85168 c -0.935,0 -1.6928,0.75787 -1.6928,1.6928 v 24.90157 c 0,0.93494 0.7578,1.6928 1.6928,1.6928 h 2.9624 c 0.9349,0 1.6928,-0.75786 1.6928,-1.6928 V 313.8925 c 0,-0.93494 0.7578,-1.69281 1.6928,-1.69281 h 18.5536 c 0.9349,0 1.6928,-0.75786 1.6928,-1.6928 v -2.96241 c 0,-0.93493 -0.7579,-1.6928 -1.6928,-1.6928 h -24.9016 z"
       style="fill:#007f9a;fill-opacity:1" /><path
       inkscape:connector-curvature="0"
       id="path3012"
       d="m 1342.4533,322.1114 v -3.10807 -11.45885 c 0,-0.93493 -0.7578,-1.6928 -1.6928,-1.6928 h -8.4217 -1.5235 -14.9563 c -0.935,0 -1.6928,0.75787 -1.6928,1.6928 v 2.96241 c 0,0.93494 0.7578,1.6928 1.6928,1.6928 h 14.9563 1.5235 2.0737 c 0.935,0 1.6928,0.75787 1.6928,1.69281 v 5.11083 3.10807 10.33482 c 0,0.93494 0.7579,1.6928 1.6928,1.6928 h 2.9624 c 0.935,0 1.6928,-0.75786 1.6928,-1.6928 V 322.1114 z"
       style="fill:#007f9a;fill-opacity:1" /><path
       inkscape:connector-curvature="0"
       id="path3015"
       d="m 1269.4089,380.58897 h 24.9015 c 0.935,0 1.6928,-0.75787 1.6928,-1.69281 v -2.9624 c 0,-0.93494 -0.7578,-1.69281 -1.6928,-1.69281 h -18.5535 c -0.935,0 -1.6928,-0.75786 -1.6928,-1.6928 v -18.55364 c 0,-0.93493 -0.7579,-1.6928 -1.6928,-1.6928 h -2.9624 c -0.935,0 -1.6928,0.75787 -1.6928,1.6928 v 24.90165 c 0,0.93494 0.7578,1.69281 1.6928,1.69281 z"
       style="fill:#007f9a;fill-opacity:1" /><path
       inkscape:connector-curvature="0"
       id="path3017"
       d="m 1315.8589,380.58897 h 24.9016 c 0.935,0 1.6928,-0.75787 1.6928,-1.69281 V 353.9946 c 0,-0.93494 -0.7578,-1.69281 -1.6928,-1.69281 h -2.9624 c -0.9349,0 -1.6928,0.75787 -1.6928,1.69281 v 18.55355 c 0,0.93494 -0.7578,1.6928 -1.6928,1.6928 h -18.5536 c -0.935,0 -1.6928,0.75787 -1.6928,1.69281 v 2.9624 c 0,0.93494 0.7578,1.69281 1.6928,1.69281 z"
       style="fill:#007f9a;fill-opacity:1" /></g><path
     d="m 1322.3433,363.06962 c 0.8547,-5e-5 1.5474,-0.69278 1.5475,-1.54743 l 0,-4.87081 c -10e-5,-2.67362 -0.8219,-5.308 -2.3203,-7.52025 -1.6822,-2.4837 -4.035,-3.72962 -6.5832,-5.09601 -1.641,-0.88006 -3.1667,-2.16238 -3.9051,-3.83498 4.7183,-2.24485 7.9799,-7.05531 7.9799,-12.6281 0,-7.71956 -6.2579,-13.97748 -13.9774,-13.97742 -7.7195,-2e-5 -13.9774,6.25781 -13.9775,13.97735 0,5.5729 3.2619,10.38329 7.9799,12.6282 -0.738,1.67287 -2.2637,2.95522 -3.9047,3.83526 -2.5483,1.36639 -4.901,2.61233 -6.5832,5.09607 -1.4984,2.21219 -2.3201,4.84661 -2.3202,7.52029 l 0,4.8708 c 0,0.85457 0.6928,1.54731 1.5474,1.54741 l 17.2584,-6e-5 17.2582,-3e-5 z"
     id="path3019"
     inkscape:connector-curvature="0"
     style="fill:#007f9a;fill-opacity:1" /></g></svg>