<?xml version="1.0" encoding="UTF-8" standalone="no"?>
<!-- Generator: Adobe Illustrator 16.0.0, SVG Export Plug-In . SVG Version: 6.00 Build 0)  -->

<svg
   xmlns:dc="http://purl.org/dc/elements/1.1/"
   xmlns:cc="http://creativecommons.org/ns#"
   xmlns:rdf="http://www.w3.org/1999/02/22-rdf-syntax-ns#"
   xmlns:svg="http://www.w3.org/2000/svg"
   xmlns="http://www.w3.org/2000/svg"
   xmlns:sodipodi="http://sodipodi.sourceforge.net/DTD/sodipodi-0.dtd"
   xmlns:inkscape="http://www.inkscape.org/namespaces/inkscape"
   version="1.1"
   id="Capa_1"
   x="0px"
   y="0px"
   width="24.254px"
   height="21.118px"
   viewBox="0 0 24.254 21.118"
   style="enable-background:new 0 0 24.254 21.118;"
   xml:space="preserve"
   inkscape:version="0.48.4 r9939"
   sodipodi:docname="lanscape.svg"><metadata
   id="metadata43"><rdf:RDF><cc:Work
       rdf:about=""><dc:format>image/svg+xml</dc:format><dc:type
         rdf:resource="http://purl.org/dc/dcmitype/StillImage" /><dc:title></dc:title></cc:Work></rdf:RDF></metadata><defs
   id="defs41" /><sodipodi:namedview
   pagecolor="#ffffff"
   bordercolor="#666666"
   borderopacity="1"
   objecttolerance="10"
   gridtolerance="10"
   guidetolerance="10"
   inkscape:pageopacity="0"
   inkscape:pageshadow="2"
   inkscape:window-width="1600"
   inkscape:window-height="848"
   id="namedview39"
   showgrid="false"
   inkscape:zoom="1.3969126"
   inkscape:cx="-144.88357"
   inkscape:cy="41.375181"
   inkscape:window-x="-8"
   inkscape:window-y="-8"
   inkscape:window-maximized="1"
   inkscape:current-layer="Capa_1" />


<g
   id="g3792"><path
     id="path3"
     d="M23.764,0H0.492C0.221,0,0,0.22,0,0.488v20.139c0,0.27,0.221,0.491,0.492,0.491h23.271c0.271,0,0.49-0.221,0.49-0.491V0.488  C24.254,0.22,24.035,0,23.764,0z M22.418,15.434h-1.471c-0.861-2.201-1.918-5.287-3.523-4.875c-1.883,0.48-2.82,4.875-2.82,4.875  s-0.963-4.959-3.619-7.615C8.33,5.164,5.76,15.434,5.76,15.434H2.246V2.226h20.172V15.434z" /><path
     id="path5"
     d="M5.504,6.707c0.908,0,1.643-0.738,1.643-1.646c0-0.91-0.734-1.646-1.643-1.646c-0.914,0-1.648,0.736-1.648,1.646  C3.855,5.969,4.59,6.707,5.504,6.707z" /><path
     id="path7"
     d="M16.543,6.222c0.371,0,0.717-0.038,1.025-0.101c0.361,0.155,0.795,0.247,1.27,0.247c1.211,0,2.193-0.592,2.193-1.324  c0-0.731-0.982-1.324-2.193-1.324c-0.455,0-0.879,0.083-1.229,0.227c-0.143-0.14-0.338-0.227-0.553-0.227h-0.318  c-0.408,0-0.729,0.309-0.775,0.702C14.98,4.524,14.25,4.88,14.25,5.306C14.25,5.813,15.277,6.222,16.543,6.222z" /></g>
<g
   id="g9">
</g>
<g
   id="g11">
</g>
<g
   id="g13">
</g>
<g
   id="g15">
</g>
<g
   id="g17">
</g>
<g
   id="g19">
</g>
<g
   id="g21">
</g>
<g
   id="g23">
</g>
<g
   id="g25">
</g>
<g
   id="g27">
</g>
<g
   id="g29">
</g>
<g
   id="g31">
</g>
<g
   id="g33">
</g>
<g
   id="g35">
</g>
<g
   id="g37">
</g>
<path
   sodipodi:type="arc"
   style="fill:#cccccc;fill-opacity:1;fill-rule:evenodd"
   id="path3020"
   sodipodi:cx="87.065125"
   sodipodi:cy="3.1481636"
   sodipodi:rx="32.396324"
   sodipodi:ry="32.396324"
   d="m 119.46145,3.1481636 a 32.396324,32.396324 0 1 1 -64.79265,0 32.396324,32.396324 0 1 1 64.79265,0 z"
   transform="matrix(2.3150775,0,0,2.3150775,-71.893708,-46.743755)" /><g
   id="g3797"
   transform="matrix(3.1251899,0,0,3.1251899,91.771181,-72.454392)"
   style="fill:#007f9a;fill-opacity:1"
   inkscape:export-filename="D:\My WORK's\project\Januari\PicInsider\icon\photographer tips\svg\lanscape.png"
   inkscape:export-xdpi="90"
   inkscape:export-ydpi="90"><path
     d="M 23.764,0 H 0.492 C 0.221,0 0,0.22 0,0.488 v 20.139 c 0,0.27 0.221,0.491 0.492,0.491 h 23.271 c 0.271,0 0.49,-0.221 0.49,-0.491 V 0.488 C 24.254,0.22 24.035,0 23.764,0 z m -1.346,15.434 h -1.471 c -0.861,-2.201 -1.918,-5.287 -3.523,-4.875 -1.883,0.48 -2.82,4.875 -2.82,4.875 0,0 -0.963,-4.959 -3.619,-7.615 C 8.33,5.164 5.76,15.434 5.76,15.434 H 2.246 V 2.226 h 20.172 v 13.208 z"
     id="path3799"
     inkscape:connector-curvature="0"
     style="fill:#007f9a;fill-opacity:1" /><path
     d="M 5.504,6.707 C 6.412,6.707 7.147,5.969 7.147,5.061 7.147,4.151 6.413,3.415 5.504,3.415 4.59,3.415 3.856,4.151 3.856,5.061 3.855,5.969 4.59,6.707 5.504,6.707 z"
     id="path3801"
     inkscape:connector-curvature="0"
     style="fill:#007f9a;fill-opacity:1" /><path
     d="m 16.543,6.222 c 0.371,0 0.717,-0.038 1.025,-0.101 0.361,0.155 0.795,0.247 1.27,0.247 1.211,0 2.193,-0.592 2.193,-1.324 0,-0.731 -0.982,-1.324 -2.193,-1.324 -0.455,0 -0.879,0.083 -1.229,0.227 C 17.466,3.807 17.271,3.72 17.056,3.72 h -0.318 c -0.408,0 -0.729,0.309 -0.775,0.702 -0.983,0.102 -1.713,0.458 -1.713,0.884 0,0.507 1.027,0.916 2.293,0.916 z"
     id="path3803"
     inkscape:connector-curvature="0"
     style="fill:#007f9a;fill-opacity:1" /></g></svg>