<?xml version="1.0" encoding="UTF-8" standalone="no"?>
<!-- Generator: Adobe Illustrator 16.0.0, SVG Export Plug-In . SVG Version: 6.00 Build 0)  -->

<svg
   xmlns:dc="http://purl.org/dc/elements/1.1/"
   xmlns:cc="http://creativecommons.org/ns#"
   xmlns:rdf="http://www.w3.org/1999/02/22-rdf-syntax-ns#"
   xmlns:svg="http://www.w3.org/2000/svg"
   xmlns="http://www.w3.org/2000/svg"
   xmlns:sodipodi="http://sodipodi.sourceforge.net/DTD/sodipodi-0.dtd"
   xmlns:inkscape="http://www.inkscape.org/namespaces/inkscape"
   version="1.1"
   id="Layer_1"
   x="0px"
   y="0px"
   width="48px"
   height="48px"
   viewBox="0 0 48 48"
   enable-background="new 0 0 48 48"
   xml:space="preserve"
   inkscape:version="0.48.4 r9939"
   sodipodi:docname="product.svg"><metadata
   id="metadata19"><rdf:RDF><cc:Work
       rdf:about=""><dc:format>image/svg+xml</dc:format><dc:type
         rdf:resource="http://purl.org/dc/dcmitype/StillImage" /><dc:title></dc:title></cc:Work></rdf:RDF></metadata><defs
   id="defs17" /><sodipodi:namedview
   pagecolor="#ffffff"
   bordercolor="#666666"
   borderopacity="1"
   objecttolerance="10"
   gridtolerance="10"
   guidetolerance="10"
   inkscape:pageopacity="0"
   inkscape:pageshadow="2"
   inkscape:window-width="1600"
   inkscape:window-height="848"
   id="namedview15"
   showgrid="false"
   inkscape:zoom="2.4583333"
   inkscape:cx="20.829584"
   inkscape:cy="65.514022"
   inkscape:window-x="-8"
   inkscape:window-y="-8"
   inkscape:window-maximized="1"
   inkscape:current-layer="Layer_1" />
<g
   id="g3">
	<path
   d="M47.009,26.73c-1.2-4.249-5.017-7.053-9.21-7.163c0.506-4.208-1.327-8.543-5.108-11.011   c-1.871-1.222-4.037-1.867-6.264-1.867c-3.409,0-6.594,1.491-8.763,4.047c-1.557-0.757-3.263-1.151-5.005-1.151   c-3.898,0-7.498,1.946-9.628,5.208c-3.46,5.301-1.96,12.431,3.339,15.892c0.197,0.13,8.885,5.769,13.644,8.858l0.014,0.009   c0.326,1.145,0.616,2.162,0.839,2.945c0.262,0.919,1.218,1.454,2.138,1.196c3.895-1.09,13.484-3.774,16.372-4.583   c-2.017-0.829-3.086-3.886-3.086-3.886c-0.4-0.038-0.794-0.141-1.144-0.344l-2.578-1.497c-0.395-0.229-0.709-0.552-0.947-0.927   l-0.819-0.032c0,0-2.786-0.065-3.375-0.323c-0.904-0.396-1.673-0.997-2.121-1.94c-0.532-1.12-0.445-2.439,0.239-3.617l0.371-0.639   l-9.977-5.796c-0.415,1.556-0.454,3.229-0.042,4.892l-2.039,0.678c-0.339,0.112-0.62,0.355-0.78,0.675   c-0.16,0.32-0.187,0.69-0.074,1.029l0.804,2.416c0.234,0.707,0.997,1.089,1.704,0.854l1.81-0.602   c0.444,1.559,0.952,3.344,1.456,5.111c-4.729-3.069-10.6-6.881-10.764-6.988c-3.918-2.559-5.026-7.826-2.471-11.742   c1.574-2.409,4.234-3.848,7.116-3.848c1.632,0,3.223,0.471,4.601,1.361c0.69,0.445,1.613,0.253,2.067-0.435   c1.575-2.394,4.229-3.822,7.1-3.822c1.643,0,3.242,0.478,4.624,1.379c2.907,1.898,4.263,5.29,3.729,8.508   c-1.632-4.988-6.916-7.85-12.016-6.411c-2.068,0.584-3.787,1.796-5.026,3.362l10.188,5.919l0.301-0.519   c0.696-1.199,1.769-1.911,3.018-2.003c0.103-0.008,0.205-0.012,0.306-0.012c1.078,0,2.105,0.435,2.806,1.243   c0.379,0.438,1.901,2.91,1.901,2.91l0.134,0.215c0.441,0.023,0.875,0.137,1.258,0.359l2.578,1.496   c0.354,0.206,0.646,0.486,0.876,0.813c0,0,2.304-0.059,3.178,0.062c1.293,0.178,2.479,1.083,3.031,2.244   c0.023,0.049,0.039,0.099,0.061,0.148C47.372,28.52,47.261,27.622,47.009,26.73z"
   id="path5" />
	<path
   d="M43.972,28.986l-2.38-0.03c-0.051,0.353-0.167,0.695-0.351,1.012l-2.266,3.899c-0.181,0.311-0.431,0.56-0.706,0.775   l1.242,2.103c0.37,0.464,0.974,0.754,1.57,0.754c0.044,0,0.088-0.002,0.132-0.005c0.637-0.047,1.304-0.351,1.625-0.904l2.682-4.617   c0.321-0.553,0.262-1.279-0.014-1.855C45.232,29.54,44.603,29.085,43.972,28.986z"
   id="path7" />
	<path
   d="M34.445,24.939l-1.442-2.325c-0.366-0.459-0.878-0.701-1.453-0.701c-0.052,0-0.104,0.002-0.156,0.006   c-0.637,0.047-1.116,0.459-1.438,1.013l-2.682,4.617c-0.321,0.553-0.437,1.177-0.162,1.754s0.729,0.93,1.359,1.028l2.761,0.109   c0.059-0.309,0.159-0.609,0.321-0.888l2.266-3.898C33.982,25.374,34.203,25.144,34.445,24.939z"
   id="path9" />
	<path
   d="M33.574,31.655l2.576,1.496c0.127,0.074,0.266,0.108,0.402,0.108c0.276,0,0.546-0.143,0.694-0.398l2.265-3.898   c0.107-0.185,0.137-0.403,0.082-0.609c-0.055-0.205-0.188-0.381-0.373-0.488l-2.576-1.495c-0.127-0.074-0.266-0.108-0.402-0.108   c-0.276,0-0.546,0.143-0.694,0.398l-2.265,3.897c-0.107,0.185-0.137,0.403-0.082,0.609C33.256,31.372,33.39,31.548,33.574,31.655z"
   id="path11" />
	<path
   d="M11.936,17.323l-4.077,1.355c-0.339,0.112-0.62,0.355-0.78,0.675c-0.16,0.32-0.187,0.69-0.074,1.029l0.804,2.416   c0.234,0.707,0.997,1.089,1.704,0.854l4.077-1.355c0.339-0.112,0.62-0.355,0.78-0.675c0.16-0.32,0.187-0.69,0.074-1.029   l-0.804-2.416C13.405,17.471,12.643,17.089,11.936,17.323z"
   id="path13" />
</g>
<path
   sodipodi:type="arc"
   style="fill:#cccccc;fill-opacity:1;fill-rule:evenodd"
   id="path2996"
   sodipodi:cx="-63.966103"
   sodipodi:cy="12.101695"
   sodipodi:rx="21.661016"
   sodipodi:ry="21.661016"
   d="m -42.305086,12.101695 a 21.661016,21.661016 0 1 1 -43.322033,0 21.661016,21.661016 0 1 1 43.322033,0 z"
   transform="matrix(3.4624414,0,0,3.4624414,394.92434,-82.577454)" /><g
   id="g2998"
   transform="matrix(2.1827479,0,0,2.1827479,120.46664,-95.732407)"
   style="fill:#007f9a;fill-opacity:1"
   inkscape:export-filename="D:\My WORK's\project\Januari\PicInsider\icon\photographer tips\svg\product..png"
   inkscape:export-xdpi="90"
   inkscape:export-ydpi="90">
	<path
   id="path3000"
   d="m 47.009,26.73 c -1.2,-4.249 -5.017,-7.053 -9.21,-7.163 C 38.305,15.359 36.472,11.024 32.691,8.556 30.82,7.334 28.654,6.689 26.427,6.689 c -3.409,0 -6.594,1.491 -8.763,4.047 -1.557,-0.757 -3.263,-1.151 -5.005,-1.151 -3.898,0 -7.498,1.946 -9.628,5.208 -3.46,5.301 -1.96,12.431 3.339,15.892 0.197,0.13 8.885,5.769 13.644,8.858 l 0.014,0.009 c 0.326,1.145 0.616,2.162 0.839,2.945 0.262,0.919 1.218,1.454 2.138,1.196 3.895,-1.09 13.484,-3.774 16.372,-4.583 -2.017,-0.829 -3.086,-3.886 -3.086,-3.886 -0.4,-0.038 -0.794,-0.141 -1.144,-0.344 L 32.569,33.383 C 32.174,33.154 31.86,32.831 31.622,32.456 l -0.819,-0.032 c 0,0 -2.786,-0.065 -3.375,-0.323 -0.904,-0.396 -1.673,-0.997 -2.121,-1.94 -0.532,-1.12 -0.445,-2.439 0.239,-3.617 l 0.371,-0.639 -9.977,-5.796 c -0.415,1.556 -0.454,3.229 -0.042,4.892 l -2.039,0.678 c -0.339,0.112 -0.62,0.355 -0.78,0.675 -0.16,0.32 -0.187,0.69 -0.074,1.029 l 0.804,2.416 c 0.234,0.707 0.997,1.089 1.704,0.854 l 1.81,-0.602 c 0.444,1.559 0.952,3.344 1.456,5.111 C 14.05,32.093 8.179,28.281 8.015,28.174 4.097,25.615 2.989,20.348 5.544,16.432 c 1.574,-2.409 4.234,-3.848 7.116,-3.848 1.632,0 3.223,0.471 4.601,1.361 0.69,0.445 1.613,0.253 2.067,-0.435 1.575,-2.394 4.229,-3.822 7.1,-3.822 1.643,0 3.242,0.478 4.624,1.379 2.907,1.898 4.263,5.29 3.729,8.508 -1.632,-4.988 -6.916,-7.85 -12.016,-6.411 -2.068,0.584 -3.787,1.796 -5.026,3.362 l 10.188,5.919 0.301,-0.519 c 0.696,-1.199 1.769,-1.911 3.018,-2.003 0.103,-0.008 0.205,-0.012 0.306,-0.012 1.078,0 2.105,0.435 2.806,1.243 0.379,0.438 1.901,2.91 1.901,2.91 l 0.134,0.215 c 0.441,0.023 0.875,0.137 1.258,0.359 l 2.578,1.496 c 0.354,0.206 0.646,0.486 0.876,0.813 0,0 2.304,-0.059 3.178,0.062 1.293,0.178 2.479,1.083 3.031,2.244 0.023,0.049 0.039,0.099 0.061,0.148 -0.003,-0.881 -0.114,-1.779 -0.366,-2.671 z"
   inkscape:connector-curvature="0"
   style="fill:#007f9a;fill-opacity:1" />
	<path
   id="path3002"
   d="m 43.972,28.986 -2.38,-0.03 c -0.051,0.353 -0.167,0.695 -0.351,1.012 l -2.266,3.899 c -0.181,0.311 -0.431,0.56 -0.706,0.775 l 1.242,2.103 c 0.37,0.464 0.974,0.754 1.57,0.754 0.044,0 0.088,-0.002 0.132,-0.005 0.637,-0.047 1.304,-0.351 1.625,-0.904 l 2.682,-4.617 c 0.321,-0.553 0.262,-1.279 -0.014,-1.855 -0.274,-0.578 -0.903,-1.033 -1.534,-1.132 z"
   inkscape:connector-curvature="0"
   style="fill:#007f9a;fill-opacity:1" />
	<path
   id="path3004"
   d="m 34.445,24.939 -1.442,-2.325 c -0.366,-0.459 -0.878,-0.701 -1.453,-0.701 -0.052,0 -0.104,0.002 -0.156,0.006 -0.637,0.047 -1.116,0.459 -1.438,1.013 l -2.682,4.617 c -0.321,0.553 -0.437,1.177 -0.162,1.754 0.275,0.577 0.729,0.93 1.359,1.028 l 2.761,0.109 c 0.059,-0.309 0.159,-0.609 0.321,-0.888 l 2.266,-3.898 c 0.163,-0.28 0.384,-0.51 0.626,-0.715 z"
   inkscape:connector-curvature="0"
   style="fill:#007f9a;fill-opacity:1" />
	<path
   id="path3006"
   d="m 33.574,31.655 2.576,1.496 c 0.127,0.074 0.266,0.108 0.402,0.108 0.276,0 0.546,-0.143 0.694,-0.398 l 2.265,-3.898 c 0.107,-0.185 0.137,-0.403 0.082,-0.609 -0.055,-0.205 -0.188,-0.381 -0.373,-0.488 l -2.576,-1.495 c -0.127,-0.074 -0.266,-0.108 -0.402,-0.108 -0.276,0 -0.546,0.143 -0.694,0.398 l -2.265,3.897 c -0.107,0.185 -0.137,0.403 -0.082,0.609 0.055,0.205 0.189,0.381 0.373,0.488 z"
   inkscape:connector-curvature="0"
   style="fill:#007f9a;fill-opacity:1" />
	<path
   id="path3008"
   d="m 11.936,17.323 -4.077,1.355 c -0.339,0.112 -0.62,0.355 -0.78,0.675 -0.16,0.32 -0.187,0.69 -0.074,1.029 l 0.804,2.416 c 0.234,0.707 0.997,1.089 1.704,0.854 l 4.077,-1.355 c 0.339,-0.112 0.62,-0.355 0.78,-0.675 0.16,-0.32 0.187,-0.69 0.074,-1.029 L 13.64,18.177 c -0.235,-0.706 -0.997,-1.088 -1.704,-0.854 z"
   inkscape:connector-curvature="0"
   style="fill:#007f9a;fill-opacity:1" />
</g></svg>