<?xml version="1.0" encoding="UTF-8" standalone="no"?>
<!-- Generator: Adobe Illustrator 16.0.4, SVG Export Plug-In . SVG Version: 6.00 Build 0)  -->

<svg
   xmlns:dc="http://purl.org/dc/elements/1.1/"
   xmlns:cc="http://creativecommons.org/ns#"
   xmlns:rdf="http://www.w3.org/1999/02/22-rdf-syntax-ns#"
   xmlns:svg="http://www.w3.org/2000/svg"
   xmlns="http://www.w3.org/2000/svg"
   xmlns:sodipodi="http://sodipodi.sourceforge.net/DTD/sodipodi-0.dtd"
   xmlns:inkscape="http://www.inkscape.org/namespaces/inkscape"
   version="1.1"
   id="Layer_1"
   x="0px"
   y="0px"
   width="112px"
   height="83.992px"
   viewBox="0 0 112 83.992"
   enable-background="new 0 0 112 83.992"
   xml:space="preserve"
   inkscape:version="0.48.4 r9939"
   sodipodi:docname="handshake1.svg"><metadata
   id="metadata9"><rdf:RDF><cc:Work
       rdf:about=""><dc:format>image/svg+xml</dc:format><dc:type
         rdf:resource="http://purl.org/dc/dcmitype/StillImage" /><dc:title></dc:title></cc:Work></rdf:RDF></metadata><defs
   id="defs7" /><sodipodi:namedview
   pagecolor="#ffffff"
   bordercolor="#666666"
   borderopacity="1"
   objecttolerance="10"
   gridtolerance="10"
   guidetolerance="10"
   inkscape:pageopacity="0"
   inkscape:pageshadow="2"
   inkscape:window-width="1600"
   inkscape:window-height="848"
   id="namedview5"
   showgrid="false"
   inkscape:zoom="1.9445436"
   inkscape:cx="-208.07547"
   inkscape:cy="185.34401"
   inkscape:window-x="-8"
   inkscape:window-y="-8"
   inkscape:window-maximized="1"
   inkscape:current-layer="Layer_1" />
<path
   sodipodi:type="arc"
   style="fill:#cccccc;fill-opacity:1;fill-rule:evenodd"
   id="path3038"
   sodipodi:cx="-365.12424"
   sodipodi:cy="-140.22513"
   sodipodi:rx="62.225395"
   sodipodi:ry="62.225395"
   d="m -302.89884,-140.22513 a 62.225395,62.225395 0 1 1 -124.45079,0 62.225395,62.225395 0 1 1 124.45079,0 z"
   transform="matrix(1.2052957,0,0,1.2052957,87.733047,16.013012)" /><path
   d="M112,10.407v35.177c0,0-7.257,1.479-8.75,1.676c-1.493,0.195-6.17,1.758-9.57-1.619  c-5.231-5.208-23.834-24.393-23.834-24.393s-3.205-3.262-8.357-0.438c-4.704,2.577-11.682,6.346-14.631,7.835  c-1.045,0.76-2.313,1.209-3.686,1.209c-3.557,0-6.439-2.992-6.439-6.684c0-2.893,1.774-5.35,4.254-6.279  c6.709-4.21,20.685-12.35,26.519-15.565c3.562-1.96,6.127-2.128,11.013,2.133c6.021,5.259,11.373,10.042,11.373,10.042  s2.506,1.199,4.531,0.905C98.658,13.781,112,10.407,112,10.407z M37.986,70.01c0.9-2.398,0.598-5.088-1.129-6.926  c-1.553-1.656-3.812-2.092-5.974-1.578c0.603-2.217,0.271-4.578-1.292-6.248c-1.559-1.652-3.812-2.086-5.973-1.572  c0.597-2.217,0.266-4.578-1.293-6.25c-2.445-2.604-6.674-2.49-9.45,0.259c-2.763,2.753-4.536,7.731-2.067,10.653  c2.465,2.92,5.287,1.146,7.448,0.635c-0.597,2.217-2.397,4.283-0.187,7.187c2.207,2.912,5.287,1.148,7.447,0.632  c-0.602,2.215-2.324,4.487-0.19,7.186c2.146,2.697,5.665,1.26,7.983,0.514c-0.896,2.395-2.813,4.965-0.35,7.868  c2.459,2.901,8.148,1.55,10.93-1.199c2.776-2.749,3.039-7.103,0.603-9.707C42.812,69.674,40.301,69.258,37.986,70.01z   M88.604,51.617c-19.979-20.724-10.57-10.966-21.36-22.179c0,0-3.253-3.36-7.532-1.41c-3.005,1.367-6.874,3.229-9.791,4.648  c-3.206,1.735-6.001,2.268-6.585,2.268c-6.183,0-11.2-5.199-11.2-11.61c0-4.158,2.129-7.779,5.301-9.833  c4.461-3.201,14.737-8.876,14.737-8.876s-3.126-4.116-9.987-4.116c-6.854,0-21.172,9.739-21.172,9.739s-4.064,2.702-9.855,0.271  L0,6.487V46.73c0,0,3.184,0.963,6.048,2.171c0.653-1.909,1.685-3.683,3.142-5.138c4.75-4.695,12.619-4.746,16.944-0.131  c1.298,1.396,2.208,3.084,2.675,4.924c1.746,0.56,3.312,1.543,4.586,2.901c1.303,1.386,2.209,3.075,2.68,4.918  c1.746,0.562,3.309,1.545,4.587,2.908c1.433,1.524,2.385,3.383,2.837,5.396c1.814,0.551,3.467,1.562,4.792,2.981  c2.589,2.761,3.519,6.517,2.955,10.14c0,0.002,0,0.002,0,0.002l0,0c0,0.002,0,0.002,0,0.004c0.005,0.006,0.013,0.01,0.019,0.018  c0.098,0.113,1.618,1.887,2.582,2.885c1.918,1.993,5.039,1.988,6.957,0c1.913-1.986,1.92-5.227,0-7.219  c-0.062-0.064-0.137-0.11-0.201-0.171c0.002-0.015,0.01-0.03,0.012-0.044c-6.465-6.706-6.801-7.191-6.161-7.854  c0.639-0.663,1.586,0.798,8.819,8.308c0.033,0.033,0.078,0.061,0.133,0.084c0.145,0.211,0.289,0.423,0.471,0.61  c1.913,1.992,5.039,1.988,6.957,0c1.914-1.987,1.918-5.227,0-7.22c-0.102-0.105-0.216-0.186-0.323-0.28  c-0.094-0.114-0.188-0.229-0.302-0.346c-6.6-6.841-7.35-8.144-6.846-8.666c0.574-0.597,3.648,2.903,10.215,9.712  c0.014,0,0.027-0.004,0.043-0.004c1.924,1.818,4.914,1.773,6.775-0.155c1.791-1.858,1.887-4.803,0.322-6.807  c-0.029-0.134-0.08-0.25-0.165-0.338c-8.311-8.63-7.956-8.759-7.452-9.281s0.541-0.558,8.629,7.832  c0.03,0.034,0.051,0.076,0.084,0.11c1.914,1.992,5.041,1.988,6.959,0c1.912-1.987,1.918-5.228,0-7.221  C88.717,51.707,88.657,51.669,88.604,51.617z"
   id="path3" />
<path
   style="fill:#2b0000"
   d="m 123.27273,-150.32028 v 35.177 c 0,0 -7.257,1.479 -8.75,1.676 -1.493,0.195 -6.17,1.758 -9.57,-1.619 -5.231001,-5.208 -23.834001,-24.393 -23.834001,-24.393 0,0 -3.205002,-3.262 -8.357002,-0.438 -4.704,2.577 -11.682,6.346 -14.630999,7.835 -1.045,0.76 -2.313,1.209 -3.686,1.209 -3.557,0 -6.439,-2.992 -6.439,-6.684 0,-2.893 1.774,-5.35 4.254,-6.279 6.709,-4.21 20.684999,-12.35 26.518999,-15.565 3.562002,-1.96 6.127002,-2.128 11.013002,2.133 6.021,5.259 11.373001,10.042 11.373001,10.042 0,0 2.506,1.199 4.531,0.905 4.235,-0.625 17.577,-3.999 17.577,-3.999 z"
   id="path3028" /><path
   style="fill:#2b0000"
   d="m 49.258728,-90.717279 c 0.9,-2.398 0.598,-5.088 -1.129,-6.926 -1.553,-1.656 -3.812,-2.092 -5.974,-1.578 0.603,-2.217001 0.271,-4.578001 -1.292,-6.248001 -1.559001,-1.652 -3.812001,-2.086 -5.973001,-1.572 0.597,-2.217 0.266,-4.578 -1.293,-6.25 -2.445,-2.604 -6.674,-2.49 -9.45,0.259 -2.763,2.753 -4.536001,7.731 -2.067,10.653 2.465,2.920001 5.287,1.146 7.448,0.635 -0.597,2.217001 -2.397,4.283001 -0.187,7.187001 2.207,2.912 5.287,1.148 7.447,0.632 -0.602,2.215 -2.324,4.487 -0.19,7.186 2.146,2.697 5.665001,1.26 7.983001,0.514 -0.896,2.395 -2.813,4.965 -0.35,7.868 2.459,2.901 8.148,1.55 10.93,-1.199 2.776,-2.749 3.039,-7.103 0.603,-9.707 -1.68,-1.79 -4.191,-2.206 -6.506,-1.454 z"
   id="path3026" /><path
   style="fill:#2b0000"
   d="m 119.87673,-109.11028 c -19.979002,-20.724 -10.57,-10.966 -21.360002,-22.179 0,0 -3.253,-3.36 -7.532,-1.41 -3.005,1.367 -6.874,3.229 -9.791,4.648 -3.205999,1.735 -6.000999,2.268 -6.584999,2.268 -6.183,0 -11.2,-5.199 -11.2,-11.61 0,-4.158 2.129,-7.779 5.301,-9.833 4.461,-3.201 14.736999,-8.876 14.736999,-8.876 0,0 -3.126,-4.116 -9.986999,-4.116 -6.854,0 -21.172001,9.739 -21.172001,9.739 0,0 -4.064,2.702 -9.855,0.271 l -11.160001,-4.032 v 40.243 c 0,0 3.184,0.963 6.048,2.171 0.653,-1.909 1.685,-3.683 3.142001,-5.138 4.75,-4.695 12.619,-4.746 16.944,-0.131 1.298,1.396 2.208,3.084 2.675001,4.924 1.746,0.56 3.312,1.543 4.586,2.901 1.303,1.386 2.209,3.075 2.68,4.918 1.746,0.562 3.309,1.545 4.587,2.908 1.433,1.524001 2.385,3.383001 2.837,5.396001 1.814,0.551 3.467,1.562 4.792,2.981 2.588999,2.761 3.518999,6.517 2.954999,10.14 0,0.002 0,0.002 0,0.002 l 0,0 c 0,0.002 0,0.002 0,0.004 0.005,0.006 0.013,0.01 0.019,0.018 0.098,0.113 1.618,1.887 2.582,2.885 1.918,1.993 5.039,1.988 6.957,0 1.913,-1.986 1.92,-5.227 0,-7.219 -0.062,-0.064 -0.137,-0.11 -0.201,-0.171 0.002,-0.015 0.01,-0.03 0.012,-0.044 -6.465,-6.706 -6.801,-7.191 -6.161,-7.854 0.639,-0.663 1.586,0.798 8.819,8.308 0.033,0.033 0.078,0.061 0.133,0.084 0.145,0.211 0.289,0.423 0.471,0.61 1.913,1.992 5.039002,1.988 6.957002,0 1.914,-1.987 1.918,-5.227 0,-7.22 -0.102,-0.105 -0.216,-0.186 -0.323,-0.28 -0.094,-0.114 -0.188,-0.229 -0.302,-0.346 -6.600002,-6.841001 -7.350002,-8.144001 -6.846002,-8.666001 0.574,-0.597 3.648,2.903001 10.215002,9.712001 0.014,0 0.027,-0.004 0.043,-0.004 1.924,1.818 4.914,1.773 6.775,-0.155 1.791,-1.858 1.887,-4.803 0.322,-6.807001 -0.029,-0.134 -0.08,-0.25 -0.165,-0.338 -8.311,-8.63 -7.956,-8.759 -7.452,-9.281 0.504,-0.522 0.541,-0.558 8.629,7.832 0.03,0.034 0.051,0.076 0.084,0.11 1.914,1.992001 5.041,1.988001 6.959,0 1.912,-1.987 1.918,-5.228 0,-7.221 -0.056,-0.052 -0.116,-0.09 -0.169,-0.142 z"
   id="path2986"
   inkscape:connector-curvature="0" /><g
   id="g3032"
   transform="translate(-253.6516,-34.276146)"
   style="fill:#007f9a;fill-opacity:1"
   inkscape:export-filename="D:\My WORK's\project\Januari\PicInsider\icon\photographer tips\svg\non profit.png"
   inkscape:export-xdpi="90"
   inkscape:export-ydpi="90"><path
     sodipodi:nodetypes="cscscc"
     inkscape:connector-curvature="0"
     id="path3022"
     d="m -117.07462,-156.57375 c 1.19383,1.11593 4.83926,8.7072 5.28843,9.0753 0.3494,0.28635 13.006752,-7.39246 13.536188,-7.65785 0.132359,-0.0663 0.273393,-0.13891 0.4375,-0.25 0.284474,-0.19257 0.680207,-0.53108 1.09375,-0.875 -5.966588,-8.13654 -16.365928,-3.11721 -20.355868,-0.29245 z"
     style="fill:#007f9a;fill-opacity:1" /><path
     sodipodi:nodetypes="csccsscccccccccc"
     inkscape:connector-curvature="0"
     id="path3020"
     d="m -74.031252,-159.90625 c -3.462828,-1.79172 -0.1719,2.02536 -9.504024,1.55226 -4.733209,-0.23995 -14.715017,9.86609 -19.277224,11.51024 -1.80384,1.08789 -3.59322,2.15644 -4.9375,3 -2.48,0.929 -4.25,3.38825 -4.25,6.28125 0,3.692 2.8805,6.6875 6.4375,6.6875 1.373,0 2.6425,-0.45875 3.6875,-1.21875 2.948997,-1.489 9.920997,-5.2355 14.624998,-7.8125 5.152,-2.824 8.375,0.4375 8.375,0.4375 11.280274,15.39841 27.683281,25.94113 29.6875,2.625 0.28635,-3.78621 -0.100832,-7.24697 -1.125,-10.25 -1.609702,0.34692 -3.051609,0.64129 -4,0.78125 -2.025,0.294 -4.53125,-0.90625 -4.53125,-0.90625 0,0 -5.354001,-4.8035 -11.375,-10.0625 -1.419759,-1.23815 -2.640782,-2.07008 -3.75,-2.625 -0.02052,0.003 -0.04198,-0.004 -0.0625,0 z"
     style="fill:#007f9a;fill-opacity:1" /><path
     sodipodi:nodetypes="ccccssccccccccccccccccccscccccssccc"
     inkscape:connector-curvature="0"
     id="path3018"
     d="m -115.875,-157.3125 c -6.00429,2.8706 -11.84375,6.84375 -11.84375,6.84375 0,0 -4.05275,2.681 -9.84375,0.25 l -6.75,-2.4375 c -0.8032,1.00419 -1.47018,2.07694 -1.96875,3.21875 -2.47144,5.65997 -2.69168,13.51967 -0.5625,19.1875 1.37697,3.66545 2.97598,6.45809 8.40625,12.34375 4.79219,-3.7119 11.8385,-3.46132 15.84375,0.8125 1.298,1.396 2.2205,3.0975 2.6875,4.9375 1.746,0.56 3.2885,1.517 4.5625,2.875 1.303,1.386 2.2165,3.0945 2.6875,4.9375 1.746,0.562 3.31575,1.54325 4.59375,2.90625 1.433,1.524001 2.39175,3.362 2.84375,5.375 1.814,0.551 3.45625,1.581 4.78125,3 2.588997,2.761 3.532748,6.502 2.968748,10.125 l 0,0.03125 c 0.05853,0.06749 0.629629,0.73545 1.28125,1.46875 9.240031,0.846262 6.950505,-6.970929 7.1875,-6.90625 -5.445845,-5.666911 -11.884478,-12.34384 -11.281248,-12.96875 0.552378,-0.57313 7.594445,6.707064 12.468748,11.84375 4.702093,1.794334 8.606554,-1.189296 7.1875,-6.9375 -4.419284,-4.70308 -11.186106,-11.95457 -10.75,-12.40625 0.431521,-0.44881 8.289467,7.40261 11.96875,11.25 6.352866,1.413288 7.095928,-2.50074 7.25,-7.0625 -3.988217,-4.30811 -9.866947,-10.65008 -9.46875,-11.0625 0.39907,-0.41332 6.676691,5.67479 10.71875,9.8125 2.757987,-0.70617 6.777937,-0.95001 7.125,-7.03125 -9.433925,-9.78664 -8.742276,-9.0791 -17.6875,-18.375 0,0 -3.25225,-3.35625 -7.53125,-1.40625 -3.005001,1.367 -6.8955,3.206 -9.8125,4.625 -3.205998,1.735 -6.009748,2.28125 -6.593748,2.28125 -6.183,0 -11.1875,-5.214 -11.1875,-11.625 0,-4.158 2.1405,-7.7585 5.3125,-9.8125 1.25386,-0.89971 2.9659,-2.01534 4.78125,-3.125 -3.34374,-3.05249 -6.41679,-5.36432 -9.375,-6.96875 z"
     style="fill:#007f9a;fill-opacity:1" /><path
     inkscape:connector-curvature="0"
     id="path3012"
     d="m -110.64128,-90.717279 c 0.9,-2.398 0.598,-5.088 -1.129,-6.926 -1.553,-1.656 -3.812,-2.092 -5.974,-1.578 0.603,-2.217001 0.271,-4.578001 -1.292,-6.248001 -1.559,-1.652 -3.812,-2.086 -5.973,-1.572 0.597,-2.217 0.266,-4.578 -1.293,-6.25 -2.445,-2.604 -6.674,-2.49 -9.45,0.259 -2.763,2.753 -4.536,7.731 -2.067,10.653 2.465,2.920001 5.287,1.146 7.448,0.635 -0.597,2.217001 -2.397,4.283001 -0.187,7.187001 2.207,2.912 5.287,1.148 7.447,0.632 -0.602,2.215 -2.324,4.487 -0.19,7.186 2.146,2.697 5.665,1.26 7.983,0.514 -0.896,2.395 -2.813,4.965 -0.35,7.868 2.459,2.901 8.148,1.55 10.93,-1.199 2.776,-2.749 3.039,-7.103 0.603,-9.707 -1.68,-1.79 -4.191,-2.206 -6.506,-1.454 z"
     style="fill:#007f9a;fill-opacity:1" /></g></svg>