<?xml version="1.0" encoding="UTF-8" standalone="no"?>
<!-- Generator: Adobe Illustrator 16.2.1, SVG Export Plug-In . SVG Version: 6.00 Build 0)  -->

<svg
   xmlns:dc="http://purl.org/dc/elements/1.1/"
   xmlns:cc="http://creativecommons.org/ns#"
   xmlns:rdf="http://www.w3.org/1999/02/22-rdf-syntax-ns#"
   xmlns:svg="http://www.w3.org/2000/svg"
   xmlns="http://www.w3.org/2000/svg"
   xmlns:sodipodi="http://sodipodi.sourceforge.net/DTD/sodipodi-0.dtd"
   xmlns:inkscape="http://www.inkscape.org/namespaces/inkscape"
   version="1.2"
   x="0px"
   y="0px"
   width="24px"
   height="24px"
   viewBox="0 0 24 24"
   xml:space="preserve"
   id="svg2"
   inkscape:version="0.48.4 r9939"
   sodipodi:docname="shopping2.svg"><metadata
   id="metadata18"><rdf:RDF><cc:Work
       rdf:about=""><dc:format>image/svg+xml</dc:format><dc:type
         rdf:resource="http://purl.org/dc/dcmitype/StillImage" /><dc:title></dc:title></cc:Work></rdf:RDF></metadata><defs
   id="defs16" /><sodipodi:namedview
   pagecolor="#ffffff"
   bordercolor="#666666"
   borderopacity="1"
   objecttolerance="10"
   gridtolerance="10"
   guidetolerance="10"
   inkscape:pageopacity="0"
   inkscape:pageshadow="2"
   inkscape:window-width="1600"
   inkscape:window-height="848"
   id="namedview14"
   showgrid="false"
   inkscape:zoom="2.4583333"
   inkscape:cx="89.530853"
   inkscape:cy="36.488972"
   inkscape:window-x="-8"
   inkscape:window-y="-8"
   inkscape:window-maximized="1"
   inkscape:current-layer="svg2" />
<g
   id="Layer_1">
	<g
   id="g5">
		<path
   d="M20.756,5.345C20.565,5.126,20.29,5,20,5H6.181L5.986,3.836C5.906,3.354,5.489,3,5,3H2.75c-0.553,0-1,0.447-1,1    s0.447,1,1,1h1.403l1.86,11.164c0.008,0.045,0.031,0.082,0.045,0.124c0.016,0.053,0.029,0.103,0.054,0.151    c0.032,0.066,0.075,0.122,0.12,0.179c0.031,0.039,0.059,0.078,0.095,0.112c0.058,0.054,0.125,0.092,0.193,0.13    c0.038,0.021,0.071,0.049,0.112,0.065C6.748,16.972,6.87,17,6.999,17C7,17,18,17,18,17c0.553,0,1-0.447,1-1s-0.447-1-1-1H7.847    l-0.166-1H19c0.498,0,0.92-0.366,0.99-0.858l1-7C21.031,5.854,20.945,5.563,20.756,5.345z M18.847,7l-0.285,2H15V7H18.847z M14,7    v2h-3V7H14z M14,10v2h-3v-2H14z M10,7v2H7C6.947,9,6.899,9.015,6.852,9.03L6.514,7H10z M7.014,10H10v2H7.347L7.014,10z M15,12v-2    h3.418l-0.285,2H15z"
   id="path7" />
		<circle
   cx="8.5"
   cy="19.5"
   r="1.5"
   id="circle9"
   d="M 10,19.5 C 10,20.328427 9.3284271,21 8.5,21 7.6715729,21 7,20.328427 7,19.5 7,18.671573 7.6715729,18 8.5,18 9.3284271,18 10,18.671573 10,19.5 z" />
		<circle
   cx="17.5"
   cy="19.5"
   r="1.5"
   id="circle11"
   d="M 19,19.5 C 19,20.328427 18.328427,21 17.5,21 16.671573,21 16,20.328427 16,19.5 16,18.671573 16.671573,18 17.5,18 c 0.828427,0 1.5,0.671573 1.5,1.5 z" />
	</g>
</g>
<g
   id="nyt_x5F_exporter_x5F_info"
   display="none">
</g>
<path
   sodipodi:type="arc"
   style="fill:#cccccc;fill-opacity:1;fill-rule:evenodd"
   id="path2995"
   sodipodi:cx="-19.423729"
   sodipodi:cy="-1.5254238"
   sodipodi:rx="10.474576"
   sodipodi:ry="10.474576"
   d="m -8.9491529,-1.5254238 a 10.474576,10.474576 0 1 1 -20.9491521,0 10.474576,10.474576 0 1 1 20.9491521,0 z"
   transform="matrix(7.1601944,0,0,7.1601944,297.87428,-18.518348)" /><g
   id="g2997"
   transform="matrix(4.3446328,0,0,4.3446328,109.37634,-81.576272)"
   style="fill:#007f9a;fill-opacity:1"
   inkscape:export-filename="D:\My WORK's\project\Januari\PicInsider\icon\photographer tips\svg\product.png"
   inkscape:export-xdpi="90"
   inkscape:export-ydpi="90">
	<g
   id="g2999"
   style="fill:#007f9a;fill-opacity:1">
		<path
   id="path3001"
   d="M 20.756,5.345 C 20.565,5.126 20.29,5 20,5 H 6.181 L 5.986,3.836 C 5.906,3.354 5.489,3 5,3 H 2.75 c -0.553,0 -1,0.447 -1,1 0,0.553 0.447,1 1,1 h 1.403 l 1.86,11.164 c 0.008,0.045 0.031,0.082 0.045,0.124 0.016,0.053 0.029,0.103 0.054,0.151 0.032,0.066 0.075,0.122 0.12,0.179 0.031,0.039 0.059,0.078 0.095,0.112 0.058,0.054 0.125,0.092 0.193,0.13 0.038,0.021 0.071,0.049 0.112,0.065 C 6.748,16.972 6.87,17 6.999,17 7,17 18,17 18,17 c 0.553,0 1,-0.447 1,-1 0,-0.553 -0.447,-1 -1,-1 H 7.847 L 7.681,14 H 19 c 0.498,0 0.92,-0.366 0.99,-0.858 l 1,-7 C 21.031,5.854 20.945,5.563 20.756,5.345 z M 18.847,7 18.562,9 H 15 V 7 h 3.847 z M 14,7 V 9 H 11 V 7 h 3 z m 0,3 v 2 h -3 v -2 h 3 z M 10,7 V 9 H 7 C 6.947,9 6.899,9.015 6.852,9.03 L 6.514,7 H 10 z M 7.014,10 H 10 v 2 H 7.347 L 7.014,10 z M 15,12 v -2 h 3.418 l -0.285,2 H 15 z"
   inkscape:connector-curvature="0"
   style="fill:#007f9a;fill-opacity:1" />
		<circle
   d="M 10,19.5 C 10,20.328427 9.3284271,21 8.5,21 7.6715729,21 7,20.328427 7,19.5 7,18.671573 7.6715729,18 8.5,18 9.3284271,18 10,18.671573 10,19.5 z"
   id="circle3003"
   r="1.5"
   cy="19.5"
   cx="8.5"
   sodipodi:cx="8.5"
   sodipodi:cy="19.5"
   sodipodi:rx="1.5"
   sodipodi:ry="1.5"
   style="fill:#007f9a;fill-opacity:1" />
		<circle
   d="M 19,19.5 C 19,20.328427 18.328427,21 17.5,21 16.671573,21 16,20.328427 16,19.5 16,18.671573 16.671573,18 17.5,18 c 0.828427,0 1.5,0.671573 1.5,1.5 z"
   id="circle3005"
   r="1.5"
   cy="19.5"
   cx="17.5"
   sodipodi:cx="17.5"
   sodipodi:cy="19.5"
   sodipodi:rx="1.5"
   sodipodi:ry="1.5"
   style="fill:#007f9a;fill-opacity:1" />
	</g>
</g></svg>